    {
    
    "主页url":"https://cj.lziapi.com/",
    
    "站名":"量子资源网",
    
    "首页":"电影",
    
    "请求头":"User-Agent$Mozilla/5.0 (iPhone; CPU iPhone OS 15_2 like Mac OS X) AppleWebKit/605.1.15 (KHTML, like Gecko) Version/14.0 Mobile/15E148 Safari/604.1",
    
    "强制解析":"0",
    
    "图片代理":"0",
    
    "二次截取":"\"list\"*[&&]",
    
    "数组":"{&&\"vod_content\"",
    
    "图片":"vod_pic\"*\"&&\"",
    
    "标题":"vod_name\"*\"&&\"",
    
    "链接":"https://cj.lziapi.com/index.php/vod/detail/id/+\"vod_id\":&&,+.html",
    
    "副标题":"vod_remarks\":\"&&\"",
    
    "搜索模式":"1",
    
    "搜索url":"https://cj.lziapi.com/index.php/ajax/suggest.html?mid=1&wd={wd}",
    
    "搜索数组二次截取":"\"list\"*[&&]",
    
    "搜索数组":"{&&}",
    
    "搜索图片":"\"pic\"*\"&&\"",
    
    "搜索标题":"\"name\"*\"&&\"",
    
    "搜索链接":"https://cj.lziapi.com/index.php/vod/detail/id/+\"id\":&&,+.html",
    
    "线路数组":"<h4>&&</h4>[