[
{"name":"风帆直播","url":"https://gitlab.com/fengfan2024/fengfan/-/raw/main/lib/20241.txt&&&https://api.likepoems.com/img/mc"},
{"name":"央卫大全","url":"https://gitlab.com/fengfan2024/fengfan/-/raw/main/lib/央卫大全.txt&&&http://74.120.175.78/JK/api/bg/"},
{"name":"大全直播","url":"https://jihulab.com/-/snippets/5265/raw/main/.txt&&&http://我不是.肥猫.live/lives/直播图3.png"},
{"name":"PIZZA直播","url":"https://ghproxy.net/raw.githubusercontent.com/PizazzGY/TVBox_warehouse/main/live.txt&&&http://我不是.肥猫.live/lives/直播图3.png"},
{"name":"v6直播","url":"https://github.moeyy.xyz/https://raw.githubusercontent.com/drangjchen/IPTV/main/M3U/ipv6.m3u&&&https://api.likepoems.com/img/mc"},
{"name":"直播大全","url":"https://raw.gitmirror.com/zgyd11/xiangjiao/main/yifa.txt&&&https://tuapi.eees.cc/api.php?category=dongman&type=302"},
{"name":"探探直播","url":"http://www.lyyytv.cn/yt/zhibo/1.txt&&&https://tuapi.eees.cc/api.php?category=dongman&type=302"},
{"name":"v4直播","url":"https://wzsvip.github.io/ipv4.txt&&&https://api.likepoems.com/img/mc"},
{"name":"青鱼直播","url":"https://fel.forxhr.top:2022/down.php/b04945bc6640a33f693de484cf2095b2.txt&3344520&&&https://api.likepoems.com/img/mc"},
{"name":"六维直播","url":"https://4key.cn/ln&&&https://api.likepoems.com/img/mc"},
{"name":"野火直播2","url":"https://www.netpan.cn/down.php/fce05d2a28081ce42edc1c984a51573a.txt&&&https://api.likepoems.com/img/mc"},
{"name":"东阳直播","url":"http://xhztv.top/zbc.txt&&&https://api.likepoems.com/img/mc"},
{"name":"飞龙直播","url":"https://gitlab.com/tvtg/vip/-/raw/main/log.txt&&&https://api.likepoems.com/img/mc"},
{"name":"欧华直播","url":"https://notabug.org/kan314/dd/raw/main/0426hua159.txt&&&https://api.likepoems.com/img/mc"},
{"name":"视觉直播","url":"http://u9v.cn/5UW7WP&&&https://api.likepoems.com/img/mc"},
{"name":"应用多多","url":"https://bitbucket.org/xduo/duoapi/raw/master/v.txt&&&https://api.likepoems.com/img/mc"},
{"name":"小米直播","url":"http://124.223.177.85:88/svip/直播挺快.txt&&&https://api.likepoems.com/img/mc"},
{"name":"多多直播","url":"https://bitbucket.org/xduo/duoapi/raw/master/v.txt&&&https://api.likepoems.com/img/mc"},
{"name":"肥猫直播","url":"http://我不是.肥猫.live/TV/tvzb.txt&&&https://api.likepoems.com/img/mc"},
{"name":"油管直播","url":"https://dxawi.github.io/0/tvlive.txt&&&https://api.likepoems.com/img/mc"},
{"name":"直播大全","url":"http://530.my3v.work/njyy.json&&&https://api.likepoems.com/img/mc"},
{"name":"饭太硬","url":"https://dxawi.github.io/0/tvlive.txt&&&https://api.likepoems.com/img/mc"}
{"name":"猫TV直播","url":"http://rihou.cc:555/gggg.nzk&&&https://tuapi.eees.cc/api.php?category=meinv&type=302"},
{"name":"范mm直播","url":"https://live.fanmingming.com/tv/m3u/ipv6.m3u&&&https://tuapi.eees.cc/api.php?category=dongman&type=302"},

]
